%YAML 1.1
%TAG !u! tag:unity3d.com,2011:
--- !u!1045 &1
EditorBuildSettings:
  m_ObjectHideFlags: 0
  serializedVersion: 2
  m_Scenes:
  - enabled: 1
    path: Assets/Scenes/Login_Regist.unity
    guid: 1f5106e42967e9e4d9b5c51374dbc254
  - enabled: 1
    path: Assets/Scenes/Endless Runner.unity
    guid: 677409cdbbbc1ce4f98b07f85adaed3a
  - enabled: 1
    path: Assets/Scenes/Leaderboard.unity
    guid: 52db4d190042a9245a98144eff94b06b
  m_configObjects: {}
